<?xml version="1.0" encoding="UTF-8" standalone="no"?>
<!-- Created with Inkscape (http://www.inkscape.org/) -->

<svg
   width="210mm"
   height="297mm"
   viewBox="0 0 210 297"
   version="1.1"
   id="svg5432"
   inkscape:version="1.2 (dc2aedaf03, 2022-05-15)"
   sodipodi:docname="new_logo.svg"
   xmlns:inkscape="http://www.inkscape.org/namespaces/inkscape"
   xmlns:sodipodi="http://sodipodi.sourceforge.net/DTD/sodipodi-0.dtd"
   xmlns="http://www.w3.org/2000/svg"
   xmlns:svg="http://www.w3.org/2000/svg">
  <sodipodi:namedview
     id="namedview5434"
     pagecolor="#ffffff"
     bordercolor="#666666"
     borderopacity="1.0"
     inkscape:showpageshadow="2"
     inkscape:pageopacity="0.0"
     inkscape:pagecheckerboard="0"
     inkscape:deskcolor="#d1d1d1"
     inkscape:document-units="mm"
     showgrid="false"
     inkscape:zoom="0.73673541"
     inkscape:cx="260.60917"
     inkscape:cy="236.17706"
     inkscape:window-width="1920"
     inkscape:window-height="1007"
     inkscape:window-x="0"
     inkscape:window-y="0"
     inkscape:window-maximized="1"
     inkscape:current-layer="layer1" />
  <defs
     id="defs5429">
    <rect
       x="68.319633"
       y="53.088509"
       width="512.28412"
       height="233.36407"
       id="rect186-3-1-6" />
  </defs>
  <g
     inkscape:label="Calque 1"
     inkscape:groupmode="layer"
     id="layer1">
    <text
       xml:space="preserve"
       transform="matrix(0.74010609,0,0,0.74010609,-45.473638,-34.973122)"
       id="text184-6-3-7"
       style="font-style:normal;font-weight:normal;font-size:40px;line-height:0.95;font-family:sans-serif;white-space:pre;shape-inside:url(#rect186-3-1-6);display:inline;fill:#000000;fill-opacity:1;stroke:none"
       inkscape:export-filename="logo_new.png"
       inkscape:export-xdpi="300"
       inkscape:export-ydpi="300"><tspan
         x="68.320312"
         y="84.799755"
         id="tspan6865"><tspan
           style="font-family:'National Park';-inkscape-font-specification:'National Park'"
           id="tspan6863">L'ENVOL  
</tspan></tspan><tspan
         x="68.320312"
         y="124.11661"
         id="tspan6869"><tspan
           style="font-family:'National Park';-inkscape-font-specification:'National Park'"
           id="tspan6867">   DES  
</tspan></tspan><tspan
         x="68.320312"
         y="163.43347"
         id="tspan6873"><tspan
           style="font-family:'National Park';-inkscape-font-specification:'National Park'"
           id="tspan6871">      FRONTIÈRES</tspan></tspan></text>
  </g>
</svg>
